grid_2                                                                         
hip, version 20.07.2 'Argyranthemum frutescens' of 27 Jul 2020, 22:34 BST      
node id off                                                                    
element id off                                                                 
part                                                                           
         1
Inlet_DHP                                                                      
coordinates                                                                    
        14
 1.90870e-01
 1.90870e-01
 1.90870e-01
 1.90870e-01
 1.90870e-01
 1.90870e-01
 1.90870e-01
 1.90870e-01
 1.90870e-01
 1.90870e-01
 1.90870e-01
 1.90870e-01
 1.90870e-01
 1.90870e-01
 7.98551e-02
 1.12773e-01
 1.12773e-01
 7.98551e-02
 1.16749e-01
 1.19251e-01
 1.20010e-01
 1.19285e-01
 1.16814e-01
 1.02211e-01
 8.30580e-02
 8.47018e-02
 8.48000e-02
 8.32089e-02
-2.90649e-02
 4.10458e-02
-4.10458e-02
 2.90649e-02
 2.77894e-02
 1.34732e-02
-1.06562e-04
-1.31704e-02
-2.73380e-02
 2.63372e-02
 1.79615e-02
 6.86615e-03
-5.54554e-03
-1.70684e-02
bar2                                                                           
        13
        13        14
         2         4
         8         9
         5         6
         4        11
         3         9
         1         3
        12        13
        11        12
         2         5
         7         8
         6         7
         1        14
part                                                                           
         2
Outlet_DHP                                                                     
coordinates                                                                    
        14
 3.40870e-01
 3.40870e-01
 3.40870e-01
 3.40870e-01
 3.40870e-01
 3.40870e-01
 3.40870e-01
 3.40870e-01
 3.40870e-01
 3.40870e-01
 3.40870e-01
 3.40870e-01
 3.40870e-01
 3.40870e-01
 7.98551e-02
 1.12773e-01
 7.98551e-02
 1.12773e-01
 1.02569e-01
 1.16449e-01
 1.18935e-01
 1.19997e-01
 1.19227e-01
 1.16730e-01
 8.32169e-02
 8.47642e-02
 8.47946e-02
 8.31122e-02
-2.90649e-02
 4.10458e-02
 2.90649e-02
-4.10458e-02
 1.99987e-02
 2.90591e-02
 1.60240e-02
 1.75919e-03
-1.36887e-02
-2.78741e-02
-1.72219e-02
-6.04104e-03
 5.59672e-03
 1.77225e-02
bar2                                                                           
        13
         9        10
         2         3
        13        14
         1         4
         4        10
         7         8
         1        11
        12        13
         6         7
        11        12
         8         9
         3        14
         2         6
part                                                                           
         3
carter_DHP                                                                     
coordinates                                                                    
        21
 1.90870e-01
 1.90870e-01
 3.40870e-01
 3.40870e-01
 1.90870e-01
 1.90870e-01
 1.90870e-01
 1.90870e-01
 1.90870e-01
 3.40870e-01
 3.40870e-01
 3.40870e-01
 3.40870e-01
 3.40870e-01
 2.65870e-01
 2.97778e-01
 2.76400e-01
 2.69637e-01
 2.50534e-01
 2.28066e-01
 2.65870e-01
 1.12773e-01
 1.12773e-01
 1.12773e-01
 1.12773e-01
 1.16749e-01
 1.19251e-01
 1.20010e-01
 1.19285e-01
 1.16814e-01
 1.16449e-01
 1.18935e-01
 1.19997e-01
 1.19227e-01
 1.16730e-01
 1.12773e-01
 1.16527e-01
 1.17297e-01
 1.19916e-01
 1.19372e-01
 1.16604e-01
 1.12773e-01
 4.10458e-02
-4.10458e-02
 4.10458e-02
-4.10458e-02
 2.77894e-02
 1.34732e-02
-1.06562e-04
-1.31704e-02
-2.73380e-02
 2.90591e-02
 1.60240e-02
 1.75919e-03
-1.36887e-02
-2.78741e-02
 4.10458e-02
-2.84000e-02
 2.49922e-02
 4.74847e-03
-1.22472e-02
-2.83303e-02
-4.10458e-02
bar2                                                                           
        16
         8         9
         5         6
         2         9
         1         5
         7         8
         6         7
        13        14
         4        14
        11        12
        10        11
        12        13
         3        10
         2        21
         4        21
         1        15
         3        15
part                                                                           
         4
moyeu_DHP                                                                      
coordinates                                                                    
        18
 1.90870e-01
 3.40870e-01
 3.40870e-01
 1.90870e-01
 3.40870e-01
 3.40870e-01
 3.40870e-01
 3.40870e-01
 1.90870e-01
 1.90870e-01
 1.90870e-01
 1.90870e-01
 2.65870e-01
 2.76520e-01
 2.66377e-01
 2.68974e-01
 2.39244e-01
 2.65870e-01
 7.98551e-02
 7.98551e-02
 7.98551e-02
 7.98551e-02
 8.32169e-02
 8.47642e-02
 8.47946e-02
 8.31122e-02
 8.30580e-02
 8.47018e-02
 8.48000e-02
 8.32089e-02
 7.98551e-02
 8.46828e-02
 8.20303e-02
 8.47023e-02
 8.31326e-02
 7.98551e-02
-2.90649e-02
-2.90649e-02
 2.90649e-02
 2.90649e-02
-1.72219e-02
-6.04104e-03
 5.59672e-03
 1.77225e-02
 1.79615e-02
 6.86615e-03
-5.54554e-03
-1.70684e-02
 2.90649e-02
 7.15951e-03
-2.13991e-02
-6.51647e-03
 1.76005e-02
-2.90649e-02
bar2                                                                           
        14
        11        12
         4         9
        10        11
         9        10
         1        12
         7         8
         2         5
         6         7
         5         6
         3         8
         1        18
         3        13
         2        18
         4        13
part                                                                           
         5
perio_g_DHP                                                                    
coordinates                                                                    
         7
 1.90870e-01
 3.40870e-01
 1.90870e-01
 3.40870e-01
 2.65870e-01
 2.65870e-01
 2.48767e-01
 7.98551e-02
 7.98551e-02
 1.12773e-01
 1.12773e-01
 7.98551e-02
 1.12773e-01
 9.98407e-02
-2.90649e-02
-2.90649e-02
-4.10458e-02
-4.10458e-02
-2.90649e-02
-4.10458e-02
-3.63390e-02
bar2                                                                           
         6
         1         3
         2         4
         3         6
         4         6
         1         5
         2         5
part                                                                           
         6
perio_d_DHP                                                                    
coordinates                                                                    
         7
 1.90870e-01
 3.40870e-01
 3.40870e-01
 1.90870e-01
 2.65870e-01
 2.65870e-01
 2.57069e-01
 1.12773e-01
 1.12773e-01
 7.98551e-02
 7.98551e-02
 1.12773e-01
 7.98551e-02
 1.00115e-01
 4.10458e-02
 4.10458e-02
 2.90649e-02
 2.90649e-02
 4.10458e-02
 2.90649e-02
 3.64389e-02
bar2                                                                           
         6
         1         4
         2         3
         1         5
         2         5
         3         6
         4         6
