grid_2                                                                         
hip, version 20.07.2 'Argyranthemum frutescens' of 27 Jul 2020, 22:34 BST      
node id off                                                                    
element id off                                                                 
part                                                                           
         1
Inlet                                                                          
coordinates                                                                    
        13
 0.00000e+00
 0.00000e+00
 0.00000e+00
 0.00000e+00
 0.00000e+00
 0.00000e+00
 0.00000e+00
 0.00000e+00
 3.80389e-21
-5.55162e-20
-1.40910e-18
 0.00000e+00
 2.25060e-21
 8.45723e-02
 1.12763e-01
 1.12763e-01
 8.45723e-02
 1.17242e-01
 1.19715e-01
 1.19727e-01
 1.17333e-01
 8.78839e-02
 8.97168e-02
 8.98267e-02
 8.79263e-02
 1.02849e-01
 3.07818e-02
 4.10424e-02
-4.10424e-02
-3.07818e-02
 2.56368e-02
 8.07981e-03
-7.88507e-03
-2.51959e-02
 1.94288e-02
 7.21499e-03
-5.61279e-03
-1.90387e-02
 2.25049e-02
bar2                                                                           
        12
         3         4
         3         8
         1         2
        11        12
        10        11
         6         7
         1         9
         5         6
         2         5
         9        10
         4        12
         7         8
part                                                                           
         2
Outlet                                                                         
coordinates                                                                    
        13
 2.00000e-01
 2.00000e-01
 2.00000e-01
 2.00000e-01
 2.00000e-01
 2.00000e-01
 2.00000e-01
 2.00000e-01
 2.00000e-01
 2.00000e-01
 2.00000e-01
 2.00000e-01
 2.00000e-01
 1.12763e-01
 7.98739e-02
 7.98739e-02
 1.12763e-01
 8.29787e-02
 8.47752e-02
 8.47682e-02
 8.30396e-02
 1.19590e-01
 1.17172e-01
 1.17567e-01
 1.19779e-01
 9.56151e-02
 4.10424e-02
 2.90717e-02
-2.90717e-02
-4.10424e-02
 1.83913e-02
 6.17898e-03
-6.27108e-03
-1.81615e-02
-9.84577e-03
-2.56987e-02
 2.39734e-02
 6.39067e-03
 2.37839e-02
bar2                                                                           
        12
         7         8
         9        10
         6         7
         1         2
        11        12
         9        12
         5         6
         3         8
         3         4
         2         5
         4        10
         1        11
part                                                                           
         3
PerioLeft                                                                      
coordinates                                                                    
        16
 2.00000e-01
 2.00000e-01
 0.00000e+00
 0.00000e+00
 1.00000e-01
 1.00000e-01
 6.00000e-02
 6.00000e-02
 5.00000e-02
 5.00000e-02
 1.75000e-01
 1.33400e-01
 1.00000e-01
 5.51399e-02
 1.40954e-01
 4.13065e-02
 7.98739e-02
 1.12763e-01
 1.12763e-01
 8.45723e-02
 8.45723e-02
 7.98739e-02
 8.45723e-02
 7.51754e-02
 7.51754e-02
 8.45723e-02
 7.98739e-02
 7.98739e-02
 1.12763e-01
 7.96502e-02
 9.15060e-02
 9.05391e-02
-2.90717e-02
-4.10424e-02
-4.10424e-02
-3.07818e-02
-3.07818e-02
-2.90717e-02
-3.07818e-02
-2.73616e-02
-2.73616e-02
-3.07818e-02
-2.90717e-02
-2.90717e-02
-4.10424e-02
-2.89903e-02
-3.33055e-02
-3.29535e-02
bar2                                                                           
        13
         3         4
         1         2
         8         9
         1        11
         2        13
        11        12
         9        10
         7         8
         5         7
         6        12
         5         6
         4        10
         3        13
part                                                                           
         4
PerioRight                                                                     
coordinates                                                                    
        15
 2.00000e-01
 2.00000e-01
 0.00000e+00
 0.00000e+00
 1.00000e-01
 1.00000e-01
 6.00000e-02
 6.00000e-02
 5.00000e-02
 5.00000e-02
 1.75000e-01
 1.33400e-01
 1.00000e-01
 1.19431e-01
 5.91104e-02
 1.12763e-01
 7.98739e-02
 8.45723e-02
 1.12763e-01
 7.98739e-02
 8.45723e-02
 8.45723e-02
 7.51754e-02
 7.51754e-02
 8.45723e-02
 7.98739e-02
 7.98739e-02
 1.12763e-01
 9.97678e-02
 8.46925e-02
 4.10424e-02
 2.90717e-02
 3.07818e-02
 4.10424e-02
 2.90717e-02
 3.07818e-02
 3.07818e-02
 2.73616e-02
 2.73616e-02
 3.07818e-02
 2.90717e-02
 2.90717e-02
 4.10424e-02
 3.63125e-02
 3.08255e-02
bar2                                                                           
        13
         3         4
         1         2
         2        11
         3        10
         4        13
         6         7
        11        12
         8         9
         7         8
         9        10
         1        13
         5        12
         5         6
part                                                                           
         5
WallIn1                                                                        
coordinates                                                                    
        16
 0.00000e+00
 0.00000e+00
 5.00000e-02
 5.00000e-02
 3.80389e-21
-5.55162e-20
-1.40910e-18
 0.00000e+00
 5.00000e-02
 5.00000e-02
 5.00000e-02
 5.00000e-02
 2.74784e-02
 2.20268e-02
 2.49310e-02
 2.59347e-02
 8.45723e-02
 8.45723e-02
 8.45723e-02
 8.45723e-02
 8.78839e-02
 8.97168e-02
 8.98267e-02
 8.79263e-02
 8.80062e-02
 8.98244e-02
 8.97524e-02
 8.78831e-02
 8.77099e-02
 8.99283e-02
 8.97663e-02
 8.84761e-02
 3.07818e-02
-3.07818e-02
 3.07818e-02
-3.07818e-02
 1.94288e-02
 7.21499e-03
-5.61279e-03
-1.90387e-02
 1.84244e-02
 5.60627e-03
-6.66765e-03
-1.94423e-02
-1.98330e-02
 3.59806e-03
-6.50432e-03
 1.60834e-02
bar2                                                                           
        12
         7         8
         6         7
         1         5
         5         6
         2         8
         2         4
         1         3
         3         9
        10        11
        11        12
         4        12
         9        10
part                                                                           
         6
WallIn2                                                                        
coordinates                                                                    
        15
 1.00000e-01
 1.00000e-01
 6.00000e-02
 6.00000e-02
 1.00000e-01
 1.00000e-01
 1.00000e-01
 6.00000e-02
 6.00000e-02
 6.00000e-02
 6.00000e-02
 8.28845e-02
 7.67616e-02
 7.57784e-02
 7.89395e-02
 8.45723e-02
 8.45723e-02
 8.45723e-02
 8.45723e-02
 8.86413e-02
 9.00007e-02
 8.85219e-02
 8.79202e-02
 8.96567e-02
 8.98639e-02
 8.81073e-02
 8.82540e-02
 8.97906e-02
 8.96991e-02
 8.76186e-02
 3.07818e-02
-3.07818e-02
 3.07818e-02
-3.07818e-02
 1.54892e-02
-2.67122e-04
-1.62443e-02
 1.92735e-02
 7.85155e-03
-4.86988e-03
-1.83760e-02
-1.74325e-02
-6.09488e-03
 7.36702e-03
 2.05033e-02
bar2                                                                           
        11
         2         4
         1         3
        10        11
         4        11
         8         9
         6         7
         9        10
         5         6
         3         8
         1         5
         2         7
part                                                                           
         7
WallIn3                                                                        
coordinates                                                                    
        14
 1.00000e-01
 1.00000e-01
 1.33400e-01
 1.33400e-01
 1.00000e-01
 1.00000e-01
 1.00000e-01
 1.33400e-01
 1.33400e-01
 1.33400e-01
 1.33400e-01
 1.17238e-01
 1.19586e-01
 1.17854e-01
 7.98739e-02
 7.98739e-02
 7.98739e-02
 7.98739e-02
 8.38206e-02
 8.49976e-02
 8.37256e-02
 8.21084e-02
 8.46767e-02
 8.49640e-02
 8.41024e-02
 8.49186e-02
 8.30684e-02
 8.40346e-02
 2.90717e-02
-2.90717e-02
-2.90717e-02
 2.90717e-02
 1.40132e-02
-8.24018e-04
-1.46959e-02
 2.20004e-02
 7.40814e-03
-2.47216e-03
-1.23190e-02
 3.73593e-03
 1.78815e-02
-1.27033e-02
bar2                                                                           
        11
         2         3
         1         4
         5         6
         1         5
         2         7
        10        11
         4         8
         9        10
         8         9
         3        11
         6         7
part                                                                           
         8
MultiperfIn                                                                    
coordinates                                                                    
        15
 1.75000e-01
 1.75000e-01
 1.33400e-01
 1.33400e-01
 1.75000e-01
 1.75000e-01
 1.75000e-01
 1.33400e-01
 1.33400e-01
 1.33400e-01
 1.33400e-01
 1.54329e-01
 1.54115e-01
 1.53165e-01
 1.52697e-01
 7.98739e-02
 7.98739e-02
 7.98739e-02
 7.98739e-02
 8.41024e-02
 8.49640e-02
 8.32433e-02
 8.21084e-02
 8.46767e-02
 8.49640e-02
 8.41024e-02
 8.28752e-02
 8.27238e-02
 8.46533e-02
 8.47140e-02
-2.90717e-02
 2.90717e-02
-2.90717e-02
 2.90717e-02
 1.23190e-02
-2.47216e-03
-1.71881e-02
 2.20004e-02
 7.40814e-03
-2.47216e-03
-1.23190e-02
-1.88216e-02
 1.95056e-02
-7.66577e-03
 6.92730e-03
bar2                                                                           
        11
         1         3
         2         4
        10        11
         4         8
         9        10
         8         9
         3        11
         5         6
         1         7
         6         7
         2         5
part                                                                           
         9
WallIn4                                                                        
coordinates                                                                    
        57
 2.00000e-01
 2.00000e-01
 1.75000e-01
 1.75000e-01
 9.00577e-02
 1.09983e-01
 9.94999e-02
 9.00000e-02
 2.00000e-01
 2.00000e-01
 2.00000e-01
 2.00000e-01
 1.75000e-01
 1.75000e-01
 1.75000e-01
 9.13575e-02
 9.42537e-02
 9.78578e-02
 1.02111e-01
 1.05810e-01
 1.08660e-01
 9.05333e-02
 9.25203e-02
 9.56412e-02
 9.96973e-02
 1.03555e-01
 1.06866e-01
 1.09247e-01
 1.04151e-01
 1.07719e-01
 1.09767e-01
 9.13426e-02
 9.50038e-02
 1.03073e-01
 1.07071e-01
 1.09523e-01
 9.10900e-02
 9.41442e-02
 9.84053e-02
 9.21664e-02
 1.09502e-01
 9.43086e-02
 9.08573e-02
 9.76198e-02
 1.06545e-01
 1.01954e-01
 1.09883e-01
 1.02019e-01
 1.08592e-01
 1.06078e-01
 9.00473e-02
 9.14467e-02
 9.71538e-02
 9.42483e-02
 1.87137e-01
 1.85368e-01
 1.87516e-01
 7.98739e-02
 7.98739e-02
 7.98739e-02
 7.98739e-02
 1.20004e-01
 1.20002e-01
 1.29584e-01
 1.30000e-01
 8.29787e-02
 8.47752e-02
 8.47682e-02
 8.30396e-02
 8.41024e-02
 8.49640e-02
 8.32433e-02
 1.19999e-01
 1.20015e-01
 1.20001e-01
 1.20001e-01
 1.20015e-01
 1.20000e-01
 1.19955e-01
 1.19816e-01
 1.19663e-01
 1.19583e-01
 1.19635e-01
 1.19778e-01
 1.19941e-01
 1.29656e-01
 1.29829e-01
 1.29981e-01
 1.29896e-01
 1.29687e-01
 1.30000e-01
 1.30000e-01
 1.30000e-01
 1.30000e-01
 1.30000e-01
 1.30000e-01
 1.23494e-01
 1.24866e-01
 1.23258e-01
 1.26274e-01
 1.24140e-01
 1.24092e-01
 1.24258e-01
 1.25337e-01
 1.25390e-01
 1.26045e-01
 1.23613e-01
 1.25082e-01
 1.23421e-01
 1.24347e-01
 1.26136e-01
 8.38965e-02
 8.40965e-02
 8.49718e-02
 2.90717e-02
-2.90717e-02
-2.90717e-02
 2.90717e-02
 9.85356e-04
 5.06753e-04
-1.00088e-02
-2.83008e-05
 1.83913e-02
 6.17898e-03
-6.27108e-03
-1.81615e-02
 1.23190e-02
-2.47216e-03
-1.71881e-02
 5.02268e-03
 8.17942e-03
 9.75739e-03
 9.75964e-03
 8.13457e-03
 5.00002e-03
-3.28152e-03
-6.65668e-03
-9.01097e-03
-1.00063e-02
-9.35674e-03
-7.27553e-03
-3.78913e-03
-9.11035e-03
-6.35182e-03
-2.09357e-03
-5.02607e-03
-8.67938e-03
 9.52245e-03
 7.07107e-03
 3.07265e-03
 4.53757e-03
 8.09890e-03
 9.85075e-03
-6.21824e-03
-3.08636e-03
-8.22933e-03
-4.02867e-03
-9.72619e-03
-7.54813e-03
-9.81836e-03
 1.43774e-03
 9.77762e-03
 5.11084e-03
 7.93305e-03
 7.88286e-04
 5.16707e-03
 9.58010e-03
 8.17669e-03
 1.34339e-02
-1.21809e-02
 2.11003e-03
bar2                                                                           
        39
        11        12
        10        11
         9        10
         2        12
         1         9
         2         3
         1         4
        13        14
         3        15
        14        15
         4        13
        26        27
        34        39
         6        28
         7        29
        29        30
        20        21
        31        36
        25        26
        32        33
        35        36
         8        32
         5        16
         5        22
         8        37
        34        35
         7        33
        18        19
        30        31
        23        24
        38        39
         6        21
        37        38
        16        17
        19        20
        24        25
        22        23
        27        28
        17        18
part                                                                           
        10
InletHole                                                                      
coordinates                                                                    
        14
 9.94999e-02
 9.00000e-02
 1.04151e-01
 1.07719e-01
 1.09767e-01
 9.13426e-02
 9.50038e-02
 1.03073e-01
 1.07071e-01
 1.09523e-01
 9.10900e-02
 9.41442e-02
 9.84053e-02
 1.00122e-01
 1.29584e-01
 1.30000e-01
 1.29656e-01
 1.29829e-01
 1.29981e-01
 1.29896e-01
 1.29687e-01
 1.30000e-01
 1.30000e-01
 1.30000e-01
 1.30000e-01
 1.30000e-01
 1.30000e-01
 1.29911e-01
-1.00088e-02
-2.83008e-05
-9.11035e-03
-6.35182e-03
-2.09357e-03
-5.02607e-03
-8.67938e-03
 9.52245e-03
 7.07107e-03
 3.07265e-03
 4.53757e-03
 8.09890e-03
 9.85075e-03
 4.80037e-04
bar2                                                                           
        13
         8        13
         1         3
         3         4
         5        10
         6         7
         9        10
         2         6
         2        11
         8         9
         1         7
         4         5
        12        13
        11        12
part                                                                           
        11
WallOut                                                                        
coordinates                                                                    
        36
 2.00000e-01
 2.00000e-01
 0.00000e+00
 0.00000e+00
 9.00577e-02
 1.09983e-01
 2.00000e-01
 2.00000e-01
 2.00000e-01
 2.00000e-01
 0.00000e+00
 0.00000e+00
 0.00000e+00
 0.00000e+00
 1.00000e-01
 1.00000e-01
 9.13575e-02
 9.42537e-02
 9.78578e-02
 1.02111e-01
 1.05810e-01
 1.08660e-01
 9.05333e-02
 9.25203e-02
 9.56412e-02
 9.96973e-02
 1.03555e-01
 1.06866e-01
 1.09247e-01
 1.45143e-01
 8.71762e-02
 1.34886e-01
 1.08613e-01
 7.50442e-02
 1.59713e-01
 5.30859e-02
 1.12763e-01
 1.12763e-01
 1.12763e-01
 1.12763e-01
 1.20004e-01
 1.20002e-01
 1.19590e-01
 1.17172e-01
 1.17567e-01
 1.19779e-01
 1.17242e-01
 1.19715e-01
 1.19727e-01
 1.17333e-01
 1.12763e-01
 1.12763e-01
 1.19999e-01
 1.20015e-01
 1.20001e-01
 1.20001e-01
 1.20015e-01
 1.20000e-01
 1.19955e-01
 1.19816e-01
 1.19663e-01
 1.19583e-01
 1.19635e-01
 1.19778e-01
 1.19941e-01
 1.19638e-01
 1.19327e-01
 1.19763e-01
 1.18758e-01
 1.19905e-01
 1.19971e-01
 1.19933e-01
 4.10424e-02
-4.10424e-02
 4.10424e-02
-4.10424e-02
 9.85356e-04
 5.06753e-04
-9.84577e-03
-2.56987e-02
 2.39734e-02
 6.39067e-03
 2.56368e-02
 8.07981e-03
-7.88507e-03
-2.51959e-02
-4.10424e-02
 4.10424e-02
 5.02268e-03
 8.17942e-03
 9.75739e-03
 9.75964e-03
 8.13457e-03
 5.00002e-03
-3.28152e-03
-6.65668e-03
-9.01097e-03
-1.00063e-02
-9.35674e-03
-7.27553e-03
-3.78913e-03
-8.86755e-03
 1.23898e-02
 7.77723e-03
-1.67734e-02
-4.41106e-03
-9.51362e-04
 2.22694e-03
bar2                                                                           
        29
         4        14
        12        13
        11        12
         3        11
        13        14
         7         8
         9        10
         7        10
         2         8
         1         9
         2        15
         4        15
         3        16
         1        16
        27        28
         6        29
        21        22
        26        27
         5        17
         5        23
        19        20
        24        25
         6        22
        17        18
        20        21
        25        26
        23        24
        28        29
        18        19
part                                                                           
        12
CanyonUp                                                                       
coordinates                                                                    
        12
 5.00000e-02
 5.00000e-02
 5.00000e-02
 5.00000e-02
 5.00000e-02
 5.00000e-02
 5.00000e-02
 5.00000e-02
 5.00000e-02
 5.00000e-02
 5.00000e-02
 5.00000e-02
 7.51754e-02
 7.51754e-02
 8.45723e-02
 8.45723e-02
 7.84476e-02
 7.99702e-02
 7.89903e-02
 8.80062e-02
 8.98244e-02
 8.97524e-02
 8.78831e-02
 8.39737e-02
 2.73616e-02
-2.73616e-02
 3.07818e-02
-3.07818e-02
 1.54683e-02
 1.88066e-03
-1.25595e-02
 1.84244e-02
 5.60627e-03
-6.66765e-03
-1.94423e-02
 1.05437e-02
bar2                                                                           
        11
         2         4
         1         3
         3         8
         9        10
        10        11
         4        11
         8         9
         6         7
         1         5
         5         6
         2         7
part                                                                           
        13
CanyonBottom                                                                   
coordinates                                                                    
        13
 6.00000e-02
 6.00000e-02
 5.00000e-02
 5.00000e-02
 6.00000e-02
 6.00000e-02
 6.00000e-02
 5.00000e-02
 5.00000e-02
 5.00000e-02
 5.45793e-02
 5.40530e-02
 5.59206e-02
 7.51754e-02
 7.51754e-02
 7.51754e-02
 7.51754e-02
 7.88075e-02
 8.00033e-02
 7.88067e-02
 7.84476e-02
 7.99702e-02
 7.89903e-02
 7.99401e-02
 7.85488e-02
 7.83064e-02
 2.73616e-02
-2.73616e-02
 2.73616e-02
-2.73616e-02
 1.34373e-02
 3.56449e-04
-1.37546e-02
 1.54683e-02
 1.88066e-03
-1.25595e-02
 3.17345e-03
 1.48711e-02
-1.61450e-02
bar2                                                                           
        10
         2         4
         1         3
         9        10
         3         8
         8         9
         4        10
         2         7
         1         5
         6         7
         5         6
part                                                                           
        14
CanyonDown                                                                     
coordinates                                                                    
        13
 6.00000e-02
 6.00000e-02
 6.00000e-02
 6.00000e-02
 6.00000e-02
 6.00000e-02
 6.00000e-02
 6.00000e-02
 6.00000e-02
 6.00000e-02
 6.00000e-02
 6.00000e-02
 6.00000e-02
 8.45723e-02
 8.45723e-02
 7.51754e-02
 7.51754e-02
 8.79202e-02
 8.96567e-02
 8.98639e-02
 8.81073e-02
 7.88075e-02
 8.00033e-02
 7.88067e-02
 8.16930e-02
 8.42471e-02
 3.07818e-02
-3.07818e-02
 2.73616e-02
-2.73616e-02
 1.92735e-02
 7.85155e-03
-4.86988e-03
-1.83760e-02
 1.34373e-02
 3.56449e-04
-1.37546e-02
 2.23885e-02
-8.84577e-03
bar2                                                                           
        11
         2         4
         1         3
         7         8
         2         8
         5         6
         6         7
         1         5
         4        11
         3         9
        10        11
         9        10
part                                                                           
        15
InletFilm                                                                      
coordinates                                                                    
        12
 1.00000e-01
 1.00000e-01
 1.00000e-01
 1.00000e-01
 1.00000e-01
 1.00000e-01
 1.00000e-01
 1.00000e-01
 1.00000e-01
 1.00000e-01
 1.00000e-01
 1.00000e-01
 7.98739e-02
 8.45723e-02
 8.45723e-02
 7.98739e-02
 8.86413e-02
 9.00007e-02
 8.85219e-02
 8.38206e-02
 8.49976e-02
 8.37256e-02
 8.48789e-02
 8.65273e-02
 2.90717e-02
 3.07818e-02
-3.07818e-02
-2.90717e-02
 1.54892e-02
-2.67122e-04
-1.62443e-02
 1.40132e-02
-8.24018e-04
-1.46959e-02
 1.49128e-02
 2.74950e-03
bar2                                                                           
        10
         3         4
         1         2
         6         7
         5         6
         2         5
         3         7
         8         9
         1         8
         4        10
         9        10
